id,name,model_id:id,group_id:id,perm_read,perm_write,perm_create,perm_unlink
access_res_partner_prescriber_canal,access_res_partner_prescriber_canal,model_res_partner_prescriber_canal,base.group_user,1,0,0,0
admin_res_partner_prescriber_canal,admin_res_partner_prescriber_canal,model_res_partner_prescriber_canal,cgscop_partner.group_cg_administrator,1,1,1,1
